…
### Exercise 7

``` r
nobel_Immigrants <- nobel %>% 
  filter(gender != "org") %>%
  filter(country == "USA") %>%
  filter (born_country != "USA")

nobel_Immigrants %>%
  count(born_country, sort = TRUE)
```

    ## # A tibble: 37 × 2
    ##    born_country       n
    ##    <chr>          <int>
    ##  1 United Kingdom    15
    ##  2 Canada            12
    ##  3 Germany           10
    ##  4 China              6
    ##  5 Poland             6
    ##  6 France             5
    ##  7 Italy              5
    ##  8 Japan              5
    ##  9 Austria            4
    ## 10 Hungary            4
    ## # ℹ 27 more rows
…
